{
  "Version": "1.0",
  "CredentialsProvider": {
    "CognitoIdentity": {
      "Default": {
        "PoolId": "us-east-1:0edc702c-9895-4487-b918-b43eb774ce0a",
        "Region": "us-east-1"
      }
    }
  },
  "IdentityManager": {
    "Default": {}
  },
  "S3TransferUtility": {
    "Default": {
      "Bucket": "dev-kanttum-backend-transcoder-in",
      "Region": "us-east-1"
    }
  }
}