{
  "project_info": {
    "project_number": "905320698334",
    "firebase_url": "https://teachgrowth-2018k.firebaseio.com",
    "project_id": "teachgrowth-2018k",
    "storage_bucket": "teachgrowth-2018k.appspot.com"
  },
  "client": [
    {
      "client_info": {
        "mobilesdk_app_id": "1:905320698334:android:cc92e235bbe8388c",
        "android_client_info": {
          "package_name": "br.com.teachgrowth.androidapp"
        }
      },
      "oauth_client": [
        {
          "client_id": "905320698334-i5rm723oh8v6dodprsnvgnts6554kgeu.apps.googleusercontent.com",
          "client_type": 3
        }
      ],
      "api_key": [
        {
          "current_key": "AIzaSyDiMy1xm5aM9lMd2j5w4lXJNbgy02E_RYs"
        }
      ],
      "services": {
        "analytics_service": {
          "status": 1
        },
        "appinvite_service": {
          "status": 1,
          "other_platform_oauth_client": []
        },
        "ads_service": {
          "status": 2
        }
      }
    },
    {
      "client_info": {
        "mobilesdk_app_id": "1:905320698334:android:6447f7d3c6cc5b45",
        "android_client_info": {
          "package_name": "kanttum.teach.growth"
        }
      },
      "oauth_client": [
        {
          "client_id": "905320698334-i5rm723oh8v6dodprsnvgnts6554kgeu.apps.googleusercontent.com",
          "client_type": 3
        }
      ],
      "api_key": [
        {
          "current_key": "AIzaSyDiMy1xm5aM9lMd2j5w4lXJNbgy02E_RYs"
        }
      ],
      "services": {
        "analytics_service": {
          "status": 1
        },
        "appinvite_service": {
          "status": 1,
          "other_platform_oauth_client": []
        },
        "ads_service": {
          "status": 2
        }
      }
    }
  ],
  "configuration_version": "1"
}